%YAML 1.1
%TAG !u! tag:unity3d.com,2011:
--- !u!1 &9131794532854398642
GameObject:
  m_ObjectHideFlags: 0
  m_CorrespondingSourceObject: {fileID: 0}
  m_PrefabInstance: {fileID: 0}
  m_PrefabAsset: {fileID: 0}
  serializedVersion: 6
  m_Component:
  - component: {fileID: 9131794532854398643}
  - component: {fileID: 9131794532854398644}
  m_Layer: 0
  m_Name: Light Probe Group
  m_TagString: Untagged
  m_Icon: {fileID: 0}
  m_NavMeshLayer: 0
  m_StaticEditorFlags: 0
  m_IsActive: 1
--- !u!4 &9131794532854398643
Transform:
  m_ObjectHideFlags: 0
  m_CorrespondingSourceObject: {fileID: 0}
  m_PrefabInstance: {fileID: 0}
  m_PrefabAsset: {fileID: 0}
  m_GameObject: {fileID: 9131794532854398642}
  m_LocalRotation: {x: -0, y: -0, z: -0, w: 1}
  m_LocalPosition: {x: -23.65, y: 3.23, z: -0.49999988}
  m_LocalScale: {x: 2.280097, y: 2.280097, z: 2.280097}
  m_Children: []
  m_Father: {fileID: 0}
  m_RootOrder: 0
  m_LocalEulerAnglesHint: {x: 0, y: 0, z: 0}
--- !u!220 &9131794532854398644
LightProbeGroup:
  m_ObjectHideFlags: 0
  m_CorrespondingSourceObject: {fileID: 0}
  m_PrefabInstance: {fileID: 0}
  m_PrefabAsset: {fileID: 0}
  m_GameObject: {fileID: 9131794532854398642}
  m_Enabled: 1
  m_SourcePositions:
  - {x: -2.3252065, y: 1, z: 1}
  - {x: -2.3885267, y: 1, z: -1}
  - {x: -2.2536194, y: -1, z: 1}
  - {x: -2.4250426, y: -1, z: -1}
  - {x: -1, y: 1, z: 1}
  - {x: -1, y: 1, z: -1}
  - {x: -1, y: -1, z: 1}
  - {x: -1, y: -1, z: -1}
  - {x: 8.630882, y: -1, z: -1}
  - {x: 8.630882, y: -1, z: 1}
  - {x: 8.630882, y: 1, z: 1}
  - {x: 8.630882, y: 1, z: -1}
  - {x: 0.9999996, y: 1, z: -1}
  - {x: 0.9999996, y: -1, z: -1}
  - {x: 0.9999996, y: -1, z: 1}
  - {x: 0.9999996, y: 1, z: 1}
  - {x: 13.5, y: -1, z: -1}
  - {x: 13.5, y: -1, z: 1}
  - {x: 13.5, y: 1, z: -1}
  - {x: 13.5, y: 1, z: 1}
  - {x: 11.303856, y: -1, z: -1}
  - {x: 11.5, y: -1, z: 1}
  - {x: 11.336002, y: 1, z: 1}
  - {x: 11.303856, y: 1, z: -1}
  - {x: 21, y: -1.0761092, z: -1}
  - {x: 21, y: -1.0761092, z: 1}
  - {x: 21, y: 0.9238908, z: -1}
  - {x: 21, y: 0.9238908, z: 1}
  - {x: 19, y: -1.0761092, z: -1}
  - {x: 19.196144, y: -1.0761092, z: 1}
  - {x: 19.032146, y: 0.9238908, z: 1}
  - {x: 19, y: 0.9238908, z: -1}
  - {x: 27, y: -1, z: -1}
  - {x: 27, y: -1, z: 1}
  - {x: 27, y: 1, z: -1}
  - {x: 27, y: 1, z: 1}
  - {x: 24.803856, y: -1, z: -1}
  - {x: 25, y: -1, z: 1}
  - {x: 24.836002, y: 1, z: 1}
  - {x: 24.803856, y: 1, z: -1}
  - {x: 35, y: -3.7275667, z: -1}
  - {x: 35, y: -3.7275667, z: 1}
  - {x: 35, y: -1.7275658, z: -1}
  - {x: 35, y: -1.7275658, z: 1}
  - {x: 33, y: -3.7275667, z: -1}
  - {x: 33.196144, y: -3.7275667, z: 1}
  - {x: 33.032146, y: -1.7275658, z: 1}
  - {x: 33, y: -1.7275658, z: -1}
  - {x: 33.86515, y: 0.90883267, z: -1}
  - {x: 33.86515, y: 0.90883267, z: 1}
  - {x: 33.86515, y: 2.9088342, z: -1}
  - {x: 33.86515, y: 2.9088342, z: 1}
  - {x: 28.865147, y: 0.90883267, z: -1}
  - {x: 29.061293, y: 0.90883267, z: 1}
  - {x: 28.897295, y: 2.9088342, z: 1}
  - {x: 28.865147, y: 2.9088342, z: -1}
  - {x: 37.013332, y: 4.114116, z: -1}
  - {x: 37.013332, y: 4.114116, z: 1}
  - {x: 37.013332, y: 6.1141176, z: -1}
  - {x: 37.013332, y: 6.1141176, z: 1}
  - {x: 32.013325, y: 4.114116, z: -1}
  - {x: 32.20947, y: 4.114116, z: 1}
  - {x: 32.04547, y: 6.1141176, z: 1}
  - {x: 32.013325, y: 6.1141176, z: -1}
  - {x: 34.20881, y: 6.401224, z: -1}
  - {x: 34.20881, y: 6.401224, z: 1}
  - {x: 34.20881, y: 8.401226, z: -1}
  - {x: 34.20881, y: 8.401226, z: 1}
  - {x: 29.2088, y: 6.401224, z: -1}
  - {x: 29.404943, y: 6.401224, z: 1}
  - {x: 29.240946, y: 8.401226, z: 1}
  - {x: 29.2088, y: 8.401226, z: -1}
  - {x: 27.99402, y: 7.1128387, z: -1}
  - {x: 27.99402, y: 7.1128387, z: 1}
  - {x: 27.99402, y: 9.112839, z: -1}
  - {x: 27.99402, y: 9.112839, z: 1}
  - {x: 22.994005, y: 7.1128387, z: -1}
  - {x: 23.190153, y: 7.1128387, z: 1}
  - {x: 23.026155, y: 9.112839, z: 1}
  - {x: 22.994005, y: 9.112839, z: -1}
  - {x: 21.524044, y: 8.1962, z: -1}
  - {x: 21.524044, y: 8.1962, z: 1}
  - {x: 21.524044, y: 10.1962, z: -1}
  - {x: 21.524044, y: 10.1962, z: 1}
  - {x: 14.604468, y: 7.58099, z: -1}
  - {x: 14.800617, y: 7.58099, z: 1}
  - {x: 16.050377, y: 10.1962, z: 1}
  - {x: 16.018227, y: 10.1962, z: -1}
  - {x: 12, y: 5.166468, z: -1}
  - {x: 12, y: 5.166468, z: 1}
  - {x: 14.577103, y: 10.1962, z: -1}
  - {x: 14.577103, y: 10.1962, z: 1}
  - {x: 9.134118, y: 5.1372795, z: -1}
  - {x: 9.134118, y: 5.1372795, z: 1}
  - {x: 9.609235, y: 10.1962, z: 1}
  - {x: 9.577085, y: 10.1962, z: -1}
  - {x: 12, y: 7.5, z: 1}
  - {x: 12, y: 7.5, z: -1}
  - {x: 9.167981, y: 7.546625, z: 1}
  - {x: 9.167981, y: 7.546625, z: -1}
  - {x: 13.660009, y: 6.252248, z: 1}
  - {x: 13.463862, y: 6.252248, z: -1}
  - {x: 4.5400696, y: -1, z: -1}
  - {x: 4.5400696, y: 1, z: -1}
  - {x: 4.5400696, y: -1, z: 1}
  - {x: 4.5400696, y: 1, z: 1}
  - {x: 6.4577007, y: 1, z: 1}
  - {x: 6.4577007, y: 1, z: -1}
  - {x: 6.4577007, y: -1, z: 1}
  - {x: 6.4577007, y: -1, z: -1}
  - {x: 2.7302692, y: 1, z: -1}
  - {x: 2.7302692, y: 1, z: 1}
  - {x: 2.7302692, y: -1, z: 1}
  - {x: 2.7302692, y: -1, z: -1}
  m_Dering: 1
