%YAML 1.1
%TAG !u! tag:unity3d.com,2011:
--- !u!114 &11400000
MonoBehaviour:
  m_ObjectHideFlags: 0
  m_CorrespondingSourceObject: {fileID: 0}
  m_PrefabInstance: {fileID: 0}
  m_PrefabAsset: {fileID: 0}
  m_GameObject: {fileID: 0}
  m_Enabled: 1
  m_EditorHideFlags: 0
  m_Script: {fileID: 11500000, guid: 29eb70dbe46840847bd52ec2873aaa2a, type: 3}
  m_Name: OtherWeapon3
  m_EditorClassIdentifier: 
  Name: Dark Elf Sword
  Icon: {fileID: 21300000, guid: 898b0a984960f5841ae6f315b974caf1, type: 3}
  Item: {fileID: 1962313793753824, guid: 42aec96b877782f4daab5aedc3a41fa3, type: 3}
  Description: Of the finest metal known to any living being, but lacks the work
    of a dwarf
  Damage: 2.5
  AnimationSpeed: 1.3
  Type: 1
  BasicWeapon: 0
