%YAML 1.1
%TAG !u! tag:unity3d.com,2011:
--- !u!114 &11400000
MonoBehaviour:
  m_ObjectHideFlags: 0
  m_CorrespondingSourceObject: {fileID: 0}
  m_PrefabInstance: {fileID: 0}
  m_PrefabAsset: {fileID: 0}
  m_GameObject: {fileID: 0}
  m_Enabled: 1
  m_EditorHideFlags: 0
  m_Script: {fileID: 11500000, guid: cd77d2f8414bf8f46a24d00714ee4f88, type: 3}
  m_Name: Kite Shield
  m_EditorClassIdentifier: 
  Name: Kite Shield
  Icon: {fileID: 21300000, guid: ba01289c2953e634ab93037644f4f509, type: 3}
  Item: {fileID: 3603304914168355893, guid: 1d9ae3a0ee1783f4ba93bb389b88b465, type: 3}
  Description: 
  DefenseBoost: 0
  Type: 0
