%YAML 1.1
%TAG !u! tag:unity3d.com,2011:
--- !u!1 &715233286357493285
GameObject:
  m_ObjectHideFlags: 0
  m_CorrespondingSourceObject: {fileID: 0}
  m_PrefabInstance: {fileID: 0}
  m_PrefabAsset: {fileID: 0}
  serializedVersion: 6
  m_Component:
  - component: {fileID: 715233286357493287}
  - component: {fileID: 715233286357493284}
  m_Layer: 0
  m_Name: LevelManager
  m_TagString: Untagged
  m_Icon: {fileID: 0}
  m_NavMeshLayer: 0
  m_StaticEditorFlags: 0
  m_IsActive: 1
--- !u!4 &715233286357493287
Transform:
  m_ObjectHideFlags: 0
  m_CorrespondingSourceObject: {fileID: 0}
  m_PrefabInstance: {fileID: 0}
  m_PrefabAsset: {fileID: 0}
  m_GameObject: {fileID: 715233286357493285}
  m_LocalRotation: {x: 0, y: 0, z: 0, w: 1}
  m_LocalPosition: {x: -1.6236026, y: -0.51688695, z: -2.2338538}
  m_LocalScale: {x: 1, y: 1, z: 1}
  m_Children: []
  m_Father: {fileID: 0}
  m_RootOrder: 0
  m_LocalEulerAnglesHint: {x: 0, y: 0, z: 0}
--- !u!114 &715233286357493284
MonoBehaviour:
  m_ObjectHideFlags: 0
  m_CorrespondingSourceObject: {fileID: 0}
  m_PrefabInstance: {fileID: 0}
  m_PrefabAsset: {fileID: 0}
  m_GameObject: {fileID: 715233286357493285}
  m_Enabled: 1
  m_EditorHideFlags: 0
  m_Script: {fileID: 11500000, guid: 8b001ed7e148eeb46a345ab814100b71, type: 3}
  m_Name: 
  m_EditorClassIdentifier: 
  EmptyWeapon: {fileID: 11400000, guid: 34b08794fc547f9409031a64939c9d04, type: 2}
  EmptyArmor: {fileID: 11400000, guid: 37a8d3d56906d7e499cb36fa4f753df3, type: 2}
  EmptyRunes:
  - {fileID: 11400000, guid: 4968f1db9c25cea4a8228d63318c9e87, type: 2}
  - {fileID: 11400000, guid: d221dc6ac61ecf9429c57e9454e74c1a, type: 2}
  - {fileID: 11400000, guid: e4cb32291df418e418b1978160918698, type: 2}
  LevelUIController: {fileID: 0}
